HB	Event	Team	Value
0	4	NEUTRAL	8
0	7	NEUTRAL	0
6964	5	MOSQUITOES	0
7684	0	MOSQUITOES	0
8047	1	MOSQUITOES	34
8132	2	MOSQUITOES	1
8132	6	MOSQUITOES	0
11145	5	WOLFS	0
11865	0	WOLFS	0
11933	1	WOLFS	11
11967	3	WOLFS	3
12123	5	SNAKES	0
12157	2	SNAKES	1
12157	6	WOLFS	0
12968	5	BEARS	0
13092	5	SNAKES	0
13812	0	SNAKES	0
14837	1	SNAKES	9
15529	5	MOSQUITOES	0
16249	0	MOSQUITOES	0
17162	5	SNAKES	0
17197	2	SNAKES	2
17197	6	MOSQUITOES	0
18673	5	SNAKES	0
19393	0	SNAKES	0
19437	1	SNAKES	14
19999	2	SNAKES	2
19999	6	SNAKES	0
27470	5	WOLFS	0
27503	5	BEARS	0
27536	2	BEARS	2
27536	6	SNAKES	0
29067	5	WOLFS	0
29787	0	WOLFS	0
29821	1	WOLFS	32
30781	2	WOLFS	2
30781	6	WOLFS	0
31231	5	SNAKES	0
