HB	Event	Team	Value
0	4	NEUTRAL	8
0	7	NEUTRAL	0
573	5	LYNX	0
1293	0	LYNX	0
1854	5	RACOON	0
1922	5	MOSQUITOES	0
2642	0	MOSQUITOES	0
2735	5	LYNX	0
3328	2	BEARS	2
3328	6	MOSQUITOES	0
3734	5	LYNX	0
4129	6	MOSQUITOES	0
4166	1	MOSQUITOES	18
6272	3	LYNX	1
6313	5	LYNX	0
7033	0	LYNX	0
9415	5	MOSQUITOES	0
9774	6	LYNX	0
9815	1	LYNX	21
11274	5	MOSQUITOES	0
11994	0	MOSQUITOES	0
14925	1	MOSQUITOES	20
18145	1	MOSQUITOES	12
21649	1	MOSQUITOES	13
25808	5	LYNX	0
26528	0	LYNX	0
27363	1	LYNX	21
