HB	Event	Team	Value
0	4	NEUTRAL	8
0	7	NEUTRAL	0
544	5	LYNX	0
771	2	LYNX	2
771	6	NEUTRAL	0
2373	2	LYNX	2
2373	6	NEUTRAL	0
2788	5	BEARS	0
3508	0	BEARS	0
3756	2	BEARS	2
3756	6	BEARS	0
4400	5	LYNX	0
5120	0	LYNX	0
5400	5	MOSQUITOES	0
6142	6	LYNX	0
6436	5	WOLFS	0
6795	6	LYNX	0
6831	1	LYNX	21
7461	2	MOSQUITOES	2
7461	6	LYNX	0
8359	5	SNAKES	0
9079	0	SNAKES	0
11490	5	LYNX	0
11519	3	LYNX	3
11558	2	LYNX	2
11558	6	SNAKES	0
13224	5	MOSQUITOES	0
13944	0	MOSQUITOES	0
13995	1	MOSQUITOES	20
15668	5	WOLFS	0
15904	5	SNAKES	0
16624	0	SNAKES	0
18011	5	LYNX	0
18731	0	LYNX	0
18905	1	LYNX	18
20666	5	WOLFS	0
21386	0	WOLFS	0
21427	1	WOLFS	9
21450	3	WOLFS	0
22022	2	LYNX	2
22022	6	WOLFS	0
22683	5	LYNX	0
23403	0	LYNX	0
24662	5	SNAKES	0
24751	2	MOSQUITOES	2
24751	6	LYNX	0
25416	1	LYNX	10
29864	2	WOLFS	2
29864	6	LYNX	0
