HB	Event	Team	Value
0	4	NEUTRAL	8
0	7	NEUTRAL	0
293	5	LYNX	0
756	5	WOLFS	0
1053	5	LYNX	0
1773	0	LYNX	0
1996	1	LYNX	14
2552	2	WOLFS	2
2552	6	LYNX	0
4586	1	LYNX	6
8936	1	LYNX	14
10110	5	WOLFS	0
10830	0	WOLFS	0
11823	2	LYNX	2
11823	6	WOLFS	0
12289	1	WOLFS	8
13726	5	MOSQUITOES	0
14446	0	MOSQUITOES	0
15265	5	WOLFS	0
15944	2	MOSQUITOES	2
15944	6	MOSQUITOES	0
17187	5	LYNX	0
17907	5	WOLFS	0
17955	2	WOLFS	2
17955	6	MOSQUITOES	0
18499	5	LYNX	0
19219	0	LYNX	0
19298	1	LYNX	17
20295	5	WOLFS	0
20329	2	WOLFS	2
20329	6	LYNX	0
23330	5	MOSQUITOES	0
24050	0	MOSQUITOES	0
24967	5	LYNX	0
25687	0	LYNX	0
25869	1	LYNX	19
26935	5	WOLFS	0
26969	2	WOLFS	2
26969	6	LYNX	0
