HB	Event	Team	Value
0	4	NEUTRAL	4
0	7	NEUTRAL	0
258	5	LYNX	0
978	0	LYNX	0
2546	1	LYNX	8
2973	5	BEARS	0
3010	2	BEARS	1
3010	6	LYNX	0
3307	5	BEARS	0
4027	0	BEARS	0
4480	2	BEARS	1
4480	6	BEARS	0
4866	5	SNAKES	0
5487	5	LYNX	0
5885	2	SNAKES	1
5885	6	BEARS	0
6166	5	SNAKES	0
6886	0	SNAKES	0
6992	5	BEARS	0
7031	2	BEARS	1
7031	6	SNAKES	0
7426	5	LYNX	0
8146	0	LYNX	0
8462	5	SNAKES	0
8517	2	SNAKES	1
8517	6	LYNX	0
8790	5	SNAKES	0
9510	0	SNAKES	0
10124	1	SNAKES	5
10594	2	LYNX	1
10594	6	SNAKES	0
11419	5	BEARS	0
11456	2	BEARS	1
11456	6	SNAKES	0
11982	3	LYNX	3
12059	5	BEARS	0
12779	0	BEARS	0
13518	1	BEARS	4
14157	2	BEARS	1
14157	6	BEARS	0
15154	2	N/A	1
15154	6	BEARS	0
15669	1	BEARS	1
16967	2	BEARS	1
16967	6	BEARS	0
17619	5	LYNX	0
17899	6	BEARS	0
18109	1	BEARS	3
18360	5	LYNX	0
18435	2	N/A	0
18435	6	BEARS	0
18930	5	LYNX	0
19650	0	LYNX	0
20761	1	LYNX	4
20779	3	LYNX	0
22125	5	BEARS	0
22845	0	BEARS	0
23118	2	BEARS	1
23118	6	BEARS	0