HB	Event	Team	Value
0	4	NEUTRAL	4
0	7	NEUTRAL	0
784	5	BEARS	0
1504	0	BEARS	0
1753	1	BEARS	6
4471	1	BEARS	5
6909	1	BEARS	4
9418	1	BEARS	4
12599	1	BEARS	5
13360	2	BEARS	1
13360	6	BEARS	0
16061	1	BEARS	5
16856	2	BEARS	1
16856	6	BEARS	0
18905	1	BEARS	3
20995	5	LYNX	0
21102	6	BEARS	0
21348	1	BEARS	4
23312	2	BEARS	1
23312	6	BEARS	0