HB	Event	Team	Value
0	4	NEUTRAL	6
0	7	NEUTRAL	0
281	5	RACOON	0
1001	0	RACOON	0
1829	1	RACOON	12
3863	3	RACOON	0
4762	1	RACOON	11
6411	2	RACOON	1
6411	6	RACOON	0
8270	1	RACOON	12
11541	1	RACOON	12
12821	3	RACOON	2
14476	1	RACOON	14
