HB	Event	Team	Value
0	4	NEUTRAL	6
0	7	NEUTRAL	0
1506	5	WOLFS	0
2226	0	WOLFS	0
3560	1	WOLFS	17
6799	1	WOLFS	11
11047	5	BEARS	0
11084	2	BEARS	1
11084	6	WOLFS	0
11577	1	WOLFS	14
13215	2	BEARS	1
13215	6	WOLFS	0
