HB	Event	Team	Value
0	4	NEUTRAL	6
0	7	NEUTRAL	0
705	5	RACOON	0
978	5	WOLFS	0
1043	5	RACOON	0
1763	0	RACOON	0
2156	1	RACOON	13
2685	5	BEARS	0
2736	2	ALIGATORS	1
2736	6	RACOON	0
3344	5	BEARS	0
3889	6	RACOON	0
4720	1	RACOON	6
5466	2	WOLFS	1
5466	6	RACOON	0
7912	1	RACOON	9
10920	1	RACOON	10
14055	1	RACOON	11
