HB	Event	Team	Value
0	4	NEUTRAL	6
0	7	NEUTRAL	0
620	5	RACOON	0
836	5	WOLFS	0
1254	5	RACOON	0
1959	2	WOLFS	1
1959	6	NEUTRAL	0
2366	5	RACOON	0
3086	0	RACOON	0
3323	1	RACOON	15
5740	2	WOLFS	1
5740	6	RACOON	0
6327	1	RACOON	8
9067	1	RACOON	9
12656	1	RACOON	12
