HB	Event	Team	Value
0	4	NEUTRAL	6
0	7	NEUTRAL	0
516	5	LYNX	0
869	2	LYNX	1
869	6	NEUTRAL	0
1754	5	LYNX	0
2474	0	LYNX	0
3014	1	LYNX	14
4671	5	ALIGATORS	0
4718	2	ALIGATORS	1
4718	6	LYNX	0
6328	1	LYNX	9
9466	1	LYNX	11
13802	1	LYNX	14
