HB	Event	Team	Value
0	4	NEUTRAL	6
0	7	NEUTRAL	0
566	5	WOLFS	0
1286	0	WOLFS	0
2842	1	WOLFS	15
3010	5	BEARS	0
3730	0	BEARS	0
5672	1	BEARS	9
8726	5	WOLFS	0
9446	0	WOLFS	0
10165	5	BEARS	0
10885	0	BEARS	0
10925	1	BEARS	18
13590	1	BEARS	9
