[
  {
    "id": 3,
    "type": "wood",
    "epsg4326": [
      24.96693,
      56.926561
    ]
  },
  {
    "id": 6,
    "type": "wood",
    "epsg4326": [
      24.962476,
      56.926652
    ]
  },
  {
    "id": 9,
    "type": "wood",
    "epsg4326": [
      24.964737,
      56.925332
    ]
  },
  {
    "id": 2,
    "type": "iron",
    "epsg4326": [
      24.963607,
      56.926739
    ]
  },
  {
    "id": 5,
    "type": "iron",
    "epsg4326": [
      24.966383,
      56.926039
    ]
  },
  {
    "id": 8,
    "type": "iron",
    "epsg4326": [
      24.963159,
      56.925667
    ]
  },
  {
    "id": 11,
    "type": "iron",
    "epsg4326": [
      24.966027,
      56.925381
    ]
  },
  {
    "id": 1,
    "type": "food_raspberry",
    "epsg4326": [
      24.967612,
      56.925191
    ]
  },
  {
    "id": 10,
    "type": "food_mushroom",
    "epsg4326": [
      24.963463,
      56.927364
    ]
  },
  {
    "id": 13,
    "type": "food_cucumber",
    "epsg4326": [
      24.965587,
      56.927074
    ]
  },
  {
    "id": 16,
    "type": "food_cucumber",
    "epsg4326": [
      24.96495,
      56.926528
    ]
  },
  {
    "id": 7,
    "type": "food_tomato",
    "epsg4326": [
      24.963599,
      56.925112
    ]
  },
  {
    "id": 19,
    "type": "food_lavender",
    "epsg4326": [
      24.963963,
      56.926189
    ]
  },
  {
    "id": 41,
    "type": "leather",
    "epsg4326": [
      24.966156,
      56.924909
    ]
  },
  {
    "id": 42,
    "type": "leather",
    "epsg4326": [
      24.96633,
      56.926743
    ]
  },
  {
    "id": 43,
    "type": "leather",
    "epsg4326": [
      24.96234,
      56.926131
    ]
  },
  {
    "id": 99,
    "type": "market",
    "epsg4326": [
      24.964957,
      56.926093
    ]
  },
  {
    "id": 53,
    "type": "castle3",
    "epsg4326": [
      24.962954,
      56.924785
    ],
    "color": "#8551B8"
  },
  {
    "id": 54,
    "type": "castle4",
    "epsg4326": [
      24.964965,
      56.927629
    ],
    "color": "#B88938"
  },
  {
    "id": 55,
    "type": "castle5",
    "epsg4326": [
      24.967946,
      56.92582
    ],
    "color": "#4EA653"
  }
]
